"template type","SWOT Analysis"
"name","SFS Strategy August 2022"
"objective",""

"list","list_description","item","note","votes","score","owner"
"Strengths","","Cost-effective in-person technical training.","","1","0","null"
"Strengths","","Community","","1","0","null"
"Strengths","","Accessibility","","1","0","null"
"Strengths","","We&apos;re wicked smart","","2","0","David Willson"
"Strengths","","One of THE best cooks in town!","","1","0","Heather Willson"
"Strengths","","Uniqueness of the Camp","","1","0","null"
"Weaknesses","","We&apos;re cash poor","","1","0","David Willson"
"Weaknesses","","Student recruiting","","1","0","null"
"Weaknesses","","Marketing","","1","0","null"
"Weaknesses","","Recruiting new board members","","1","0","Heather Willson"
"Weaknesses","","Business structure unclear. Difficult to sell services to some businesses.","","1","0","Gar Romero"
"Weaknesses","","We&apos;re unwilling to hire out the easy work","","1","0","David Willson"
"Weaknesses","","Limited teachers","","1","0","Heather Willson"
"Weaknesses","","Teacher time/compensation for Camps","","1","0","null"
"Opportunities","","Enterprises (CU)","","1","0","null"
"Opportunities","","Formalize and sell Camps more regularly. (Round robin style)","","1","0","Gar Romero"
"Opportunities","","Partnering with companies (Comcast, RTD, that one school downtown, Code Talent, CU, ASG)","","1","0","Heather Willson"
"Opportunities","","Get involved with add&apos;l learning for Universities (DU, Regis, CU, CSU, Metro, etc)","","1","0","Heather Willson"
"Opportunities","","David has been doing an internship thing with Jacob Sayre - seems cool","","1","0","Heather Willson"
"Opportunities","","Mentoring programs - Technical work (e.g. SFS SysOps), Agile (e.g. scrum mastering), Teaching (SFS Method)","","1","0","null"
"Opportunities","","Subscriptions / Subscriber Benefits - Zimbra mailbox, hosting?, terminal services","","1","0","David Willson"
"Opportunities","","Grants for (e.g.) child/school programs?  Partially-subsidized?","","1","0","null"
"Threats","","Online training: Free, Paid, and/or asynchronous","","1","0","null"
"Threats","","Group ADHD","","1","0","Gar Romero"
"Threats","","Teacher/boardmember/owner fatigue","","1","0","null"
